('C:\\Users\\Irfan Fakri Ardian\\Desktop\\Program\\build\\login\\out00-PYZ.pyz',
 [('ntpath',
   'c:\\users\\irfan fakri '
   'ardian\\appdata\\local\\programs\\python\\python36\\lib\\ntpath.py',
   'PYMODULE'),
  ('_strptime',
   'c:\\users\\irfan fakri '
   'ardian\\appdata\\local\\programs\\python\\python36\\lib\\_strptime.py',
   'PYMODULE'),
  ('datetime',
   'c:\\users\\irfan fakri '
   'ardian\\appdata\\local\\programs\\python\\python36\\lib\\datetime.py',
   'PYMODULE'),
  ('stringprep',
   'c:\\users\\irfan fakri '
   'ardian\\appdata\\local\\programs\\python\\python36\\lib\\stringprep.py',
   'PYMODULE'),
  ('os',
   'c:\\users\\irfan fakri '
   'ardian\\appdata\\local\\programs\\python\\python36\\lib\\os.py',
   'PYMODULE'),
  ('fnmatch',
   'c:\\users\\irfan fakri '
   'ardian\\appdata\\local\\programs\\python\\python36\\lib\\fnmatch.py',
   'PYMODULE'),
  ('struct',
   'c:\\users\\irfan fakri '
   'ardian\\appdata\\local\\programs\\python\\python36\\lib\\struct.py',
   'PYMODULE'),
  ('_compat_pickle',
   'c:\\users\\irfan fakri '
   'ardian\\appdata\\local\\programs\\python\\python36\\lib\\_compat_pickle.py',
   'PYMODULE'),
  ('__future__',
   'c:\\users\\irfan fakri '
   'ardian\\appdata\\local\\programs\\python\\python36\\lib\\__future__.py',
   'PYMODULE'),
  ('difflib',
   'c:\\users\\irfan fakri '
   'ardian\\appdata\\local\\programs\\python\\python36\\lib\\difflib.py',
   'PYMODULE'),
  ('ast',
   'c:\\users\\irfan fakri '
   'ardian\\appdata\\local\\programs\\python\\python36\\lib\\ast.py',
   'PYMODULE'),
  ('inspect',
   'c:\\users\\irfan fakri '
   'ardian\\appdata\\local\\programs\\python\\python36\\lib\\inspect.py',
   'PYMODULE'),
  ('cmd',
   'c:\\users\\irfan fakri '
   'ardian\\appdata\\local\\programs\\python\\python36\\lib\\cmd.py',
   'PYMODULE'),
  ('bdb',
   'c:\\users\\irfan fakri '
   'ardian\\appdata\\local\\programs\\python\\python36\\lib\\bdb.py',
   'PYMODULE'),
  ('opcode',
   'c:\\users\\irfan fakri '
   'ardian\\appdata\\local\\programs\\python\\python36\\lib\\opcode.py',
   'PYMODULE'),
  ('dis',
   'c:\\users\\irfan fakri '
   'ardian\\appdata\\local\\programs\\python\\python36\\lib\\dis.py',
   'PYMODULE'),
  ('codeop',
   'c:\\users\\irfan fakri '
   'ardian\\appdata\\local\\programs\\python\\python36\\lib\\codeop.py',
   'PYMODULE'),
  ('code',
   'c:\\users\\irfan fakri '
   'ardian\\appdata\\local\\programs\\python\\python36\\lib\\code.py',
   'PYMODULE'),
  ('glob',
   'c:\\users\\irfan fakri '
   'ardian\\appdata\\local\\programs\\python\\python36\\lib\\glob.py',
   'PYMODULE'),
  ('shlex',
   'c:\\users\\irfan fakri '
   'ardian\\appdata\\local\\programs\\python\\python36\\lib\\shlex.py',
   'PYMODULE'),
  ('importlib._bootstrap',
   'c:\\users\\irfan fakri '
   'ardian\\appdata\\local\\programs\\python\\python36\\lib\\importlib\\_bootstrap.py',
   'PYMODULE'),
  ('importlib._bootstrap_external',
   'c:\\users\\irfan fakri '
   'ardian\\appdata\\local\\programs\\python\\python36\\lib\\importlib\\_bootstrap_external.py',
   'PYMODULE'),
  ('importlib.machinery',
   'c:\\users\\irfan fakri '
   'ardian\\appdata\\local\\programs\\python\\python36\\lib\\importlib\\machinery.py',
   'PYMODULE'),
  ('importlib.util',
   'c:\\users\\irfan fakri '
   'ardian\\appdata\\local\\programs\\python\\python36\\lib\\importlib\\util.py',
   'PYMODULE'),
  ('importlib.abc',
   'c:\\users\\irfan fakri '
   'ardian\\appdata\\local\\programs\\python\\python36\\lib\\importlib\\abc.py',
   'PYMODULE'),
  ('importlib',
   'c:\\users\\irfan fakri '
   'ardian\\appdata\\local\\programs\\python\\python36\\lib\\importlib\\__init__.py',
   'PYMODULE'),
  ('pkgutil',
   'c:\\users\\irfan fakri '
   'ardian\\appdata\\local\\programs\\python\\python36\\lib\\pkgutil.py',
   'PYMODULE'),
  ('xml',
   'c:\\users\\irfan fakri '
   'ardian\\appdata\\local\\programs\\python\\python36\\lib\\xml\\__init__.py',
   'PYMODULE'),
  ('xml.sax.expatreader',
   'c:\\users\\irfan fakri '
   'ardian\\appdata\\local\\programs\\python\\python36\\lib\\xml\\sax\\expatreader.py',
   'PYMODULE'),
  ('xml.sax.saxutils',
   'c:\\users\\irfan fakri '
   'ardian\\appdata\\local\\programs\\python\\python36\\lib\\xml\\sax\\saxutils.py',
   'PYMODULE'),
  ('urllib.request',
   'c:\\users\\irfan fakri '
   'ardian\\appdata\\local\\programs\\python\\python36\\lib\\urllib\\request.py',
   'PYMODULE'),
  ('getpass',
   'c:\\users\\irfan fakri '
   'ardian\\appdata\\local\\programs\\python\\python36\\lib\\getpass.py',
   'PYMODULE'),
  ('nturl2path',
   'c:\\users\\irfan fakri '
   'ardian\\appdata\\local\\programs\\python\\python36\\lib\\nturl2path.py',
   'PYMODULE'),
  ('ftplib',
   'c:\\users\\irfan fakri '
   'ardian\\appdata\\local\\programs\\python\\python36\\lib\\ftplib.py',
   'PYMODULE'),
  ('netrc',
   'c:\\users\\irfan fakri '
   'ardian\\appdata\\local\\programs\\python\\python36\\lib\\netrc.py',
   'PYMODULE'),
  ('http.cookiejar',
   'c:\\users\\irfan fakri '
   'ardian\\appdata\\local\\programs\\python\\python36\\lib\\http\\cookiejar.py',
   'PYMODULE'),
  ('urllib.response',
   'c:\\users\\irfan fakri '
   'ardian\\appdata\\local\\programs\\python\\python36\\lib\\urllib\\response.py',
   'PYMODULE'),
  ('urllib.error',
   'c:\\users\\irfan fakri '
   'ardian\\appdata\\local\\programs\\python\\python36\\lib\\urllib\\error.py',
   'PYMODULE'),
  ('xml.sax',
   'c:\\users\\irfan fakri '
   'ardian\\appdata\\local\\programs\\python\\python36\\lib\\xml\\sax\\__init__.py',
   'PYMODULE'),
  ('xml.sax.handler',
   'c:\\users\\irfan fakri '
   'ardian\\appdata\\local\\programs\\python\\python36\\lib\\xml\\sax\\handler.py',
   'PYMODULE'),
  ('xml.sax._exceptions',
   'c:\\users\\irfan fakri '
   'ardian\\appdata\\local\\programs\\python\\python36\\lib\\xml\\sax\\_exceptions.py',
   'PYMODULE'),
  ('xml.sax.xmlreader',
   'c:\\users\\irfan fakri '
   'ardian\\appdata\\local\\programs\\python\\python36\\lib\\xml\\sax\\xmlreader.py',
   'PYMODULE'),
  ('xml.parsers',
   'c:\\users\\irfan fakri '
   'ardian\\appdata\\local\\programs\\python\\python36\\lib\\xml\\parsers\\__init__.py',
   'PYMODULE'),
  ('xml.parsers.expat',
   'c:\\users\\irfan fakri '
   'ardian\\appdata\\local\\programs\\python\\python36\\lib\\xml\\parsers\\expat.py',
   'PYMODULE'),
  ('plistlib',
   'c:\\users\\irfan fakri '
   'ardian\\appdata\\local\\programs\\python\\python36\\lib\\plistlib.py',
   'PYMODULE'),
  ('platform',
   'c:\\users\\irfan fakri '
   'ardian\\appdata\\local\\programs\\python\\python36\\lib\\platform.py',
   'PYMODULE'),
  ('token',
   'c:\\users\\irfan fakri '
   'ardian\\appdata\\local\\programs\\python\\python36\\lib\\token.py',
   'PYMODULE'),
  ('tokenize',
   'c:\\users\\irfan fakri '
   'ardian\\appdata\\local\\programs\\python\\python36\\lib\\tokenize.py',
   'PYMODULE'),
  ('urllib.parse',
   'c:\\users\\irfan fakri '
   'ardian\\appdata\\local\\programs\\python\\python36\\lib\\urllib\\parse.py',
   'PYMODULE'),
  ('tempfile',
   'c:\\users\\irfan fakri '
   'ardian\\appdata\\local\\programs\\python\\python36\\lib\\tempfile.py',
   'PYMODULE'),
  ('subprocess',
   'c:\\users\\irfan fakri '
   'ardian\\appdata\\local\\programs\\python\\python36\\lib\\subprocess.py',
   'PYMODULE'),
  ('tty',
   'c:\\users\\irfan fakri '
   'ardian\\appdata\\local\\programs\\python\\python36\\lib\\tty.py',
   'PYMODULE'),
  ('pydoc_data',
   'c:\\users\\irfan fakri '
   'ardian\\appdata\\local\\programs\\python\\python36\\lib\\pydoc_data\\__init__.py',
   'PYMODULE'),
  ('pydoc_data.topics',
   'c:\\users\\irfan fakri '
   'ardian\\appdata\\local\\programs\\python\\python36\\lib\\pydoc_data\\topics.py',
   'PYMODULE'),
  ('html.entities',
   'c:\\users\\irfan fakri '
   'ardian\\appdata\\local\\programs\\python\\python36\\lib\\html\\entities.py',
   'PYMODULE'),
  ('html',
   'c:\\users\\irfan fakri '
   'ardian\\appdata\\local\\programs\\python\\python36\\lib\\html\\__init__.py',
   'PYMODULE'),
  ('ipaddress',
   'c:\\users\\irfan fakri '
   'ardian\\appdata\\local\\programs\\python\\python36\\lib\\ipaddress.py',
   'PYMODULE'),
  ('ssl',
   'c:\\users\\irfan fakri '
   'ardian\\appdata\\local\\programs\\python\\python36\\lib\\ssl.py',
   'PYMODULE'),
  ('http.client',
   'c:\\users\\irfan fakri '
   'ardian\\appdata\\local\\programs\\python\\python36\\lib\\http\\client.py',
   'PYMODULE'),
  ('mimetypes',
   'c:\\users\\irfan fakri '
   'ardian\\appdata\\local\\programs\\python\\python36\\lib\\mimetypes.py',
   'PYMODULE'),
  ('genericpath',
   'c:\\users\\irfan fakri '
   'ardian\\appdata\\local\\programs\\python\\python36\\lib\\genericpath.py',
   'PYMODULE'),
  ('posixpath',
   'c:\\users\\irfan fakri '
   'ardian\\appdata\\local\\programs\\python\\python36\\lib\\posixpath.py',
   'PYMODULE'),
  ('socketserver',
   'c:\\users\\irfan fakri '
   'ardian\\appdata\\local\\programs\\python\\python36\\lib\\socketserver.py',
   'PYMODULE'),
  ('http',
   'c:\\users\\irfan fakri '
   'ardian\\appdata\\local\\programs\\python\\python36\\lib\\http\\__init__.py',
   'PYMODULE'),
  ('http.server',
   'c:\\users\\irfan fakri '
   'ardian\\appdata\\local\\programs\\python\\python36\\lib\\http\\server.py',
   'PYMODULE'),
  ('optparse',
   'c:\\users\\irfan fakri '
   'ardian\\appdata\\local\\programs\\python\\python36\\lib\\optparse.py',
   'PYMODULE'),
  ('uu',
   'c:\\users\\irfan fakri '
   'ardian\\appdata\\local\\programs\\python\\python36\\lib\\uu.py',
   'PYMODULE'),
  ('quopri',
   'c:\\users\\irfan fakri '
   'ardian\\appdata\\local\\programs\\python\\python36\\lib\\quopri.py',
   'PYMODULE'),
  ('email.feedparser',
   'c:\\users\\irfan fakri '
   'ardian\\appdata\\local\\programs\\python\\python36\\lib\\email\\feedparser.py',
   'PYMODULE'),
  ('email.parser',
   'c:\\users\\irfan fakri '
   'ardian\\appdata\\local\\programs\\python\\python36\\lib\\email\\parser.py',
   'PYMODULE'),
  ('email',
   'c:\\users\\irfan fakri '
   'ardian\\appdata\\local\\programs\\python\\python36\\lib\\email\\__init__.py',
   'PYMODULE'),
  ('calendar',
   'c:\\users\\irfan fakri '
   'ardian\\appdata\\local\\programs\\python\\python36\\lib\\calendar.py',
   'PYMODULE'),
  ('email._parseaddr',
   'c:\\users\\irfan fakri '
   'ardian\\appdata\\local\\programs\\python\\python36\\lib\\email\\_parseaddr.py',
   'PYMODULE'),
  ('email.utils',
   'c:\\users\\irfan fakri '
   'ardian\\appdata\\local\\programs\\python\\python36\\lib\\email\\utils.py',
   'PYMODULE'),
  ('email.errors',
   'c:\\users\\irfan fakri '
   'ardian\\appdata\\local\\programs\\python\\python36\\lib\\email\\errors.py',
   'PYMODULE'),
  ('email.header',
   'c:\\users\\irfan fakri '
   'ardian\\appdata\\local\\programs\\python\\python36\\lib\\email\\header.py',
   'PYMODULE'),
  ('email._policybase',
   'c:\\users\\irfan fakri '
   'ardian\\appdata\\local\\programs\\python\\python36\\lib\\email\\_policybase.py',
   'PYMODULE'),
  ('email.base64mime',
   'c:\\users\\irfan fakri '
   'ardian\\appdata\\local\\programs\\python\\python36\\lib\\email\\base64mime.py',
   'PYMODULE'),
  ('email.encoders',
   'c:\\users\\irfan fakri '
   'ardian\\appdata\\local\\programs\\python\\python36\\lib\\email\\encoders.py',
   'PYMODULE'),
  ('email.charset',
   'c:\\users\\irfan fakri '
   'ardian\\appdata\\local\\programs\\python\\python36\\lib\\email\\charset.py',
   'PYMODULE'),
  ('base64',
   'c:\\users\\irfan fakri '
   'ardian\\appdata\\local\\programs\\python\\python36\\lib\\base64.py',
   'PYMODULE'),
  ('email._encoded_words',
   'c:\\users\\irfan fakri '
   'ardian\\appdata\\local\\programs\\python\\python36\\lib\\email\\_encoded_words.py',
   'PYMODULE'),
  ('hashlib',
   'c:\\users\\irfan fakri '
   'ardian\\appdata\\local\\programs\\python\\python36\\lib\\hashlib.py',
   'PYMODULE'),
  ('bisect',
   'c:\\users\\irfan fakri '
   'ardian\\appdata\\local\\programs\\python\\python36\\lib\\bisect.py',
   'PYMODULE'),
  ('random',
   'c:\\users\\irfan fakri '
   'ardian\\appdata\\local\\programs\\python\\python36\\lib\\random.py',
   'PYMODULE'),
  ('email.generator',
   'c:\\users\\irfan fakri '
   'ardian\\appdata\\local\\programs\\python\\python36\\lib\\email\\generator.py',
   'PYMODULE'),
  ('email.iterators',
   'c:\\users\\irfan fakri '
   'ardian\\appdata\\local\\programs\\python\\python36\\lib\\email\\iterators.py',
   'PYMODULE'),
  ('urllib',
   'c:\\users\\irfan fakri '
   'ardian\\appdata\\local\\programs\\python\\python36\\lib\\urllib\\__init__.py',
   'PYMODULE'),
  ('email._header_value_parser',
   'c:\\users\\irfan fakri '
   'ardian\\appdata\\local\\programs\\python\\python36\\lib\\email\\_header_value_parser.py',
   'PYMODULE'),
  ('email.headerregistry',
   'c:\\users\\irfan fakri '
   'ardian\\appdata\\local\\programs\\python\\python36\\lib\\email\\headerregistry.py',
   'PYMODULE'),
  ('email.quoprimime',
   'c:\\users\\irfan fakri '
   'ardian\\appdata\\local\\programs\\python\\python36\\lib\\email\\quoprimime.py',
   'PYMODULE'),
  ('email.contentmanager',
   'c:\\users\\irfan fakri '
   'ardian\\appdata\\local\\programs\\python\\python36\\lib\\email\\contentmanager.py',
   'PYMODULE'),
  ('email.policy',
   'c:\\users\\irfan fakri '
   'ardian\\appdata\\local\\programs\\python\\python36\\lib\\email\\policy.py',
   'PYMODULE'),
  ('email.message',
   'c:\\users\\irfan fakri '
   'ardian\\appdata\\local\\programs\\python\\python36\\lib\\email\\message.py',
   'PYMODULE'),
  ('stat',
   'c:\\users\\irfan fakri '
   'ardian\\appdata\\local\\programs\\python\\python36\\lib\\stat.py',
   'PYMODULE'),
  ('lzma',
   'c:\\users\\irfan fakri '
   'ardian\\appdata\\local\\programs\\python\\python36\\lib\\lzma.py',
   'PYMODULE'),
  ('gzip',
   'c:\\users\\irfan fakri '
   'ardian\\appdata\\local\\programs\\python\\python36\\lib\\gzip.py',
   'PYMODULE'),
  ('tarfile',
   'c:\\users\\irfan fakri '
   'ardian\\appdata\\local\\programs\\python\\python36\\lib\\tarfile.py',
   'PYMODULE'),
  ('py_compile',
   'c:\\users\\irfan fakri '
   'ardian\\appdata\\local\\programs\\python\\python36\\lib\\py_compile.py',
   'PYMODULE'),
  ('zipfile',
   'c:\\users\\irfan fakri '
   'ardian\\appdata\\local\\programs\\python\\python36\\lib\\zipfile.py',
   'PYMODULE'),
  ('shutil',
   'c:\\users\\irfan fakri '
   'ardian\\appdata\\local\\programs\\python\\python36\\lib\\shutil.py',
   'PYMODULE'),
  ('selectors',
   'c:\\users\\irfan fakri '
   'ardian\\appdata\\local\\programs\\python\\python36\\lib\\selectors.py',
   'PYMODULE'),
  ('socket',
   'c:\\users\\irfan fakri '
   'ardian\\appdata\\local\\programs\\python\\python36\\lib\\socket.py',
   'PYMODULE'),
  ('webbrowser',
   'c:\\users\\irfan fakri '
   'ardian\\appdata\\local\\programs\\python\\python36\\lib\\webbrowser.py',
   'PYMODULE'),
  ('pydoc',
   'c:\\users\\irfan fakri '
   'ardian\\appdata\\local\\programs\\python\\python36\\lib\\pydoc.py',
   'PYMODULE'),
  ('getopt',
   'c:\\users\\irfan fakri '
   'ardian\\appdata\\local\\programs\\python\\python36\\lib\\getopt.py',
   'PYMODULE'),
  ('pdb',
   'c:\\users\\irfan fakri '
   'ardian\\appdata\\local\\programs\\python\\python36\\lib\\pdb.py',
   'PYMODULE'),
  ('unittest.util',
   'c:\\users\\irfan fakri '
   'ardian\\appdata\\local\\programs\\python\\python36\\lib\\unittest\\util.py',
   'PYMODULE'),
  ('unittest.result',
   'c:\\users\\irfan fakri '
   'ardian\\appdata\\local\\programs\\python\\python36\\lib\\unittest\\result.py',
   'PYMODULE'),
  ('string',
   'c:\\users\\irfan fakri '
   'ardian\\appdata\\local\\programs\\python\\python36\\lib\\string.py',
   'PYMODULE'),
  ('logging',
   'c:\\users\\irfan fakri '
   'ardian\\appdata\\local\\programs\\python\\python36\\lib\\logging\\__init__.py',
   'PYMODULE'),
  ('unittest.case',
   'c:\\users\\irfan fakri '
   'ardian\\appdata\\local\\programs\\python\\python36\\lib\\unittest\\case.py',
   'PYMODULE'),
  ('unittest.suite',
   'c:\\users\\irfan fakri '
   'ardian\\appdata\\local\\programs\\python\\python36\\lib\\unittest\\suite.py',
   'PYMODULE'),
  ('unittest.loader',
   'c:\\users\\irfan fakri '
   'ardian\\appdata\\local\\programs\\python\\python36\\lib\\unittest\\loader.py',
   'PYMODULE'),
  ('unittest.runner',
   'c:\\users\\irfan fakri '
   'ardian\\appdata\\local\\programs\\python\\python36\\lib\\unittest\\runner.py',
   'PYMODULE'),
  ('unittest.main',
   'c:\\users\\irfan fakri '
   'ardian\\appdata\\local\\programs\\python\\python36\\lib\\unittest\\main.py',
   'PYMODULE'),
  ('enum',
   'c:\\users\\irfan fakri '
   'ardian\\appdata\\local\\programs\\python\\python36\\lib\\enum.py',
   'PYMODULE'),
  ('signal',
   'c:\\users\\irfan fakri '
   'ardian\\appdata\\local\\programs\\python\\python36\\lib\\signal.py',
   'PYMODULE'),
  ('unittest.signals',
   'c:\\users\\irfan fakri '
   'ardian\\appdata\\local\\programs\\python\\python36\\lib\\unittest\\signals.py',
   'PYMODULE'),
  ('unittest',
   'c:\\users\\irfan fakri '
   'ardian\\appdata\\local\\programs\\python\\python36\\lib\\unittest\\__init__.py',
   'PYMODULE'),
  ('doctest',
   'c:\\users\\irfan fakri '
   'ardian\\appdata\\local\\programs\\python\\python36\\lib\\doctest.py',
   'PYMODULE'),
  ('textwrap',
   'c:\\users\\irfan fakri '
   'ardian\\appdata\\local\\programs\\python\\python36\\lib\\textwrap.py',
   'PYMODULE'),
  ('gettext',
   'c:\\users\\irfan fakri '
   'ardian\\appdata\\local\\programs\\python\\python36\\lib\\gettext.py',
   'PYMODULE'),
  ('argparse',
   'c:\\users\\irfan fakri '
   'ardian\\appdata\\local\\programs\\python\\python36\\lib\\argparse.py',
   'PYMODULE'),
  ('pprint',
   'c:\\users\\irfan fakri '
   'ardian\\appdata\\local\\programs\\python\\python36\\lib\\pprint.py',
   'PYMODULE'),
  ('pickle',
   'c:\\users\\irfan fakri '
   'ardian\\appdata\\local\\programs\\python\\python36\\lib\\pickle.py',
   'PYMODULE'),
  ('tracemalloc',
   'c:\\users\\irfan fakri '
   'ardian\\appdata\\local\\programs\\python\\python36\\lib\\tracemalloc.py',
   'PYMODULE'),
  ('warnings',
   'c:\\users\\irfan fakri '
   'ardian\\appdata\\local\\programs\\python\\python36\\lib\\warnings.py',
   'PYMODULE'),
  ('_compression',
   'c:\\users\\irfan fakri '
   'ardian\\appdata\\local\\programs\\python\\python36\\lib\\_compression.py',
   'PYMODULE'),
  ('contextlib',
   'c:\\users\\irfan fakri '
   'ardian\\appdata\\local\\programs\\python\\python36\\lib\\contextlib.py',
   'PYMODULE'),
  ('_threading_local',
   'c:\\users\\irfan fakri '
   'ardian\\appdata\\local\\programs\\python\\python36\\lib\\_threading_local.py',
   'PYMODULE'),
  ('threading',
   'c:\\users\\irfan fakri '
   'ardian\\appdata\\local\\programs\\python\\python36\\lib\\threading.py',
   'PYMODULE'),
  ('_dummy_thread',
   'c:\\users\\irfan fakri '
   'ardian\\appdata\\local\\programs\\python\\python36\\lib\\_dummy_thread.py',
   'PYMODULE'),
  ('dummy_threading',
   'c:\\users\\irfan fakri '
   'ardian\\appdata\\local\\programs\\python\\python36\\lib\\dummy_threading.py',
   'PYMODULE'),
  ('bz2',
   'c:\\users\\irfan fakri '
   'ardian\\appdata\\local\\programs\\python\\python36\\lib\\bz2.py',
   'PYMODULE'),
  ('copy',
   'c:\\users\\irfan fakri '
   'ardian\\appdata\\local\\programs\\python\\python36\\lib\\copy.py',
   'PYMODULE'),
  ('module.modNormalize',
   'C:\\Users\\Irfan Fakri Ardian\\Desktop\\Program\\module\\modNormalize.py',
   'PYMODULE'),
  ('module', '-', 'PYMODULE'),
  ('Sastrawi.Stemmer.StemmerFactory',
   'c:\\users\\irfan fakri '
   'ardian\\appdata\\local\\programs\\python\\python36\\lib\\site-packages\\Sastrawi\\Stemmer\\StemmerFactory.py',
   'PYMODULE'),
  ('Sastrawi.Stemmer',
   'c:\\users\\irfan fakri '
   'ardian\\appdata\\local\\programs\\python\\python36\\lib\\site-packages\\Sastrawi\\Stemmer\\__init__.py',
   'PYMODULE'),
  ('Sastrawi',
   'c:\\users\\irfan fakri '
   'ardian\\appdata\\local\\programs\\python\\python36\\lib\\site-packages\\Sastrawi\\__init__.py',
   'PYMODULE'),
  ('Sastrawi.Stemmer.Cache.ArrayCache',
   'c:\\users\\irfan fakri '
   'ardian\\appdata\\local\\programs\\python\\python36\\lib\\site-packages\\Sastrawi\\Stemmer\\Cache\\ArrayCache.py',
   'PYMODULE'),
  ('Sastrawi.Stemmer.Cache',
   'c:\\users\\irfan fakri '
   'ardian\\appdata\\local\\programs\\python\\python36\\lib\\site-packages\\Sastrawi\\Stemmer\\Cache\\__init__.py',
   'PYMODULE'),
  ('Sastrawi.Stemmer.Cache.CacheInterface',
   'c:\\users\\irfan fakri '
   'ardian\\appdata\\local\\programs\\python\\python36\\lib\\site-packages\\Sastrawi\\Stemmer\\Cache\\CacheInterface.py',
   'PYMODULE'),
  ('Sastrawi.Stemmer.CachedStemmer',
   'c:\\users\\irfan fakri '
   'ardian\\appdata\\local\\programs\\python\\python36\\lib\\site-packages\\Sastrawi\\Stemmer\\CachedStemmer.py',
   'PYMODULE'),
  ('Sastrawi.Stemmer.Filter.TextNormalizer',
   'c:\\users\\irfan fakri '
   'ardian\\appdata\\local\\programs\\python\\python36\\lib\\site-packages\\Sastrawi\\Stemmer\\Filter\\TextNormalizer.py',
   'PYMODULE'),
  ('Sastrawi.Stemmer.Filter',
   'c:\\users\\irfan fakri '
   'ardian\\appdata\\local\\programs\\python\\python36\\lib\\site-packages\\Sastrawi\\Stemmer\\Filter\\__init__.py',
   'PYMODULE'),
  ('Sastrawi.Stemmer.Stemmer',
   'c:\\users\\irfan fakri '
   'ardian\\appdata\\local\\programs\\python\\python36\\lib\\site-packages\\Sastrawi\\Stemmer\\Stemmer.py',
   'PYMODULE'),
  ('Sastrawi.Stemmer.Context.Context',
   'c:\\users\\irfan fakri '
   'ardian\\appdata\\local\\programs\\python\\python36\\lib\\site-packages\\Sastrawi\\Stemmer\\Context\\Context.py',
   'PYMODULE'),
  ('Sastrawi.Stemmer.Context',
   'c:\\users\\irfan fakri '
   'ardian\\appdata\\local\\programs\\python\\python36\\lib\\site-packages\\Sastrawi\\Stemmer\\Context\\__init__.py',
   'PYMODULE'),
  ('Sastrawi.Stemmer.ConfixStripping.PrecedenceAdjustmentSpecification',
   'c:\\users\\irfan fakri '
   'ardian\\appdata\\local\\programs\\python\\python36\\lib\\site-packages\\Sastrawi\\Stemmer\\ConfixStripping\\PrecedenceAdjustmentSpecification.py',
   'PYMODULE'),
  ('Sastrawi.Stemmer.ConfixStripping',
   'c:\\users\\irfan fakri '
   'ardian\\appdata\\local\\programs\\python\\python36\\lib\\site-packages\\Sastrawi\\Stemmer\\ConfixStripping\\__init__.py',
   'PYMODULE'),
  ('Sastrawi.Stemmer.Context.Visitor.VisitorProvider',
   'c:\\users\\irfan fakri '
   'ardian\\appdata\\local\\programs\\python\\python36\\lib\\site-packages\\Sastrawi\\Stemmer\\Context\\Visitor\\VisitorProvider.py',
   'PYMODULE'),
  ('Sastrawi.Stemmer.Context.Visitor',
   'c:\\users\\irfan fakri '
   'ardian\\appdata\\local\\programs\\python\\python36\\lib\\site-packages\\Sastrawi\\Stemmer\\Context\\Visitor\\__init__.py',
   'PYMODULE'),
  ('Sastrawi.Morphology.Disambiguator.DisambiguatorPrefixRule42',
   'c:\\users\\irfan fakri '
   'ardian\\appdata\\local\\programs\\python\\python36\\lib\\site-packages\\Sastrawi\\Morphology\\Disambiguator\\DisambiguatorPrefixRule42.py',
   'PYMODULE'),
  ('Sastrawi.Morphology.Disambiguator',
   'c:\\users\\irfan fakri '
   'ardian\\appdata\\local\\programs\\python\\python36\\lib\\site-packages\\Sastrawi\\Morphology\\Disambiguator\\__init__.py',
   'PYMODULE'),
  ('Sastrawi.Morphology',
   'c:\\users\\irfan fakri '
   'ardian\\appdata\\local\\programs\\python\\python36\\lib\\site-packages\\Sastrawi\\Morphology\\__init__.py',
   'PYMODULE'),
  ('Sastrawi.Morphology.Disambiguator.DisambiguatorPrefixRule41',
   'c:\\users\\irfan fakri '
   'ardian\\appdata\\local\\programs\\python\\python36\\lib\\site-packages\\Sastrawi\\Morphology\\Disambiguator\\DisambiguatorPrefixRule41.py',
   'PYMODULE'),
  ('Sastrawi.Morphology.Disambiguator.DisambiguatorPrefixRule40',
   'c:\\users\\irfan fakri '
   'ardian\\appdata\\local\\programs\\python\\python36\\lib\\site-packages\\Sastrawi\\Morphology\\Disambiguator\\DisambiguatorPrefixRule40.py',
   'PYMODULE'),
  ('Sastrawi.Morphology.Disambiguator.DisambiguatorPrefixRule39',
   'c:\\users\\irfan fakri '
   'ardian\\appdata\\local\\programs\\python\\python36\\lib\\site-packages\\Sastrawi\\Morphology\\Disambiguator\\DisambiguatorPrefixRule39.py',
   'PYMODULE'),
  ('Sastrawi.Morphology.Disambiguator.DisambiguatorPrefixRule38',
   'c:\\users\\irfan fakri '
   'ardian\\appdata\\local\\programs\\python\\python36\\lib\\site-packages\\Sastrawi\\Morphology\\Disambiguator\\DisambiguatorPrefixRule38.py',
   'PYMODULE'),
  ('Sastrawi.Morphology.Disambiguator.DisambiguatorPrefixRule37',
   'c:\\users\\irfan fakri '
   'ardian\\appdata\\local\\programs\\python\\python36\\lib\\site-packages\\Sastrawi\\Morphology\\Disambiguator\\DisambiguatorPrefixRule37.py',
   'PYMODULE'),
  ('Sastrawi.Morphology.Disambiguator.DisambiguatorPrefixRule36',
   'c:\\users\\irfan fakri '
   'ardian\\appdata\\local\\programs\\python\\python36\\lib\\site-packages\\Sastrawi\\Morphology\\Disambiguator\\DisambiguatorPrefixRule36.py',
   'PYMODULE'),
  ('Sastrawi.Morphology.Disambiguator.DisambiguatorPrefixRule35',
   'c:\\users\\irfan fakri '
   'ardian\\appdata\\local\\programs\\python\\python36\\lib\\site-packages\\Sastrawi\\Morphology\\Disambiguator\\DisambiguatorPrefixRule35.py',
   'PYMODULE'),
  ('Sastrawi.Morphology.Disambiguator.DisambiguatorPrefixRule34',
   'c:\\users\\irfan fakri '
   'ardian\\appdata\\local\\programs\\python\\python36\\lib\\site-packages\\Sastrawi\\Morphology\\Disambiguator\\DisambiguatorPrefixRule34.py',
   'PYMODULE'),
  ('Sastrawi.Morphology.Disambiguator.DisambiguatorPrefixRule32',
   'c:\\users\\irfan fakri '
   'ardian\\appdata\\local\\programs\\python\\python36\\lib\\site-packages\\Sastrawi\\Morphology\\Disambiguator\\DisambiguatorPrefixRule32.py',
   'PYMODULE'),
  ('Sastrawi.Morphology.Disambiguator.DisambiguatorPrefixRule31',
   'c:\\users\\irfan fakri '
   'ardian\\appdata\\local\\programs\\python\\python36\\lib\\site-packages\\Sastrawi\\Morphology\\Disambiguator\\DisambiguatorPrefixRule31.py',
   'PYMODULE'),
  ('Sastrawi.Morphology.Disambiguator.DisambiguatorPrefixRule30',
   'c:\\users\\irfan fakri '
   'ardian\\appdata\\local\\programs\\python\\python36\\lib\\site-packages\\Sastrawi\\Morphology\\Disambiguator\\DisambiguatorPrefixRule30.py',
   'PYMODULE'),
  ('Sastrawi.Morphology.Disambiguator.DisambiguatorPrefixRule29',
   'c:\\users\\irfan fakri '
   'ardian\\appdata\\local\\programs\\python\\python36\\lib\\site-packages\\Sastrawi\\Morphology\\Disambiguator\\DisambiguatorPrefixRule29.py',
   'PYMODULE'),
  ('Sastrawi.Morphology.Disambiguator.DisambiguatorPrefixRule28',
   'c:\\users\\irfan fakri '
   'ardian\\appdata\\local\\programs\\python\\python36\\lib\\site-packages\\Sastrawi\\Morphology\\Disambiguator\\DisambiguatorPrefixRule28.py',
   'PYMODULE'),
  ('Sastrawi.Morphology.Disambiguator.DisambiguatorPrefixRule27',
   'c:\\users\\irfan fakri '
   'ardian\\appdata\\local\\programs\\python\\python36\\lib\\site-packages\\Sastrawi\\Morphology\\Disambiguator\\DisambiguatorPrefixRule27.py',
   'PYMODULE'),
  ('Sastrawi.Morphology.Disambiguator.DisambiguatorPrefixRule26',
   'c:\\users\\irfan fakri '
   'ardian\\appdata\\local\\programs\\python\\python36\\lib\\site-packages\\Sastrawi\\Morphology\\Disambiguator\\DisambiguatorPrefixRule26.py',
   'PYMODULE'),
  ('Sastrawi.Morphology.Disambiguator.DisambiguatorPrefixRule25',
   'c:\\users\\irfan fakri '
   'ardian\\appdata\\local\\programs\\python\\python36\\lib\\site-packages\\Sastrawi\\Morphology\\Disambiguator\\DisambiguatorPrefixRule25.py',
   'PYMODULE'),
  ('Sastrawi.Morphology.Disambiguator.DisambiguatorPrefixRule24',
   'c:\\users\\irfan fakri '
   'ardian\\appdata\\local\\programs\\python\\python36\\lib\\site-packages\\Sastrawi\\Morphology\\Disambiguator\\DisambiguatorPrefixRule24.py',
   'PYMODULE'),
  ('Sastrawi.Morphology.Disambiguator.DisambiguatorPrefixRule23',
   'c:\\users\\irfan fakri '
   'ardian\\appdata\\local\\programs\\python\\python36\\lib\\site-packages\\Sastrawi\\Morphology\\Disambiguator\\DisambiguatorPrefixRule23.py',
   'PYMODULE'),
  ('Sastrawi.Morphology.Disambiguator.DisambiguatorPrefixRule21',
   'c:\\users\\irfan fakri '
   'ardian\\appdata\\local\\programs\\python\\python36\\lib\\site-packages\\Sastrawi\\Morphology\\Disambiguator\\DisambiguatorPrefixRule21.py',
   'PYMODULE'),
  ('Sastrawi.Morphology.Disambiguator.DisambiguatorPrefixRule20',
   'c:\\users\\irfan fakri '
   'ardian\\appdata\\local\\programs\\python\\python36\\lib\\site-packages\\Sastrawi\\Morphology\\Disambiguator\\DisambiguatorPrefixRule20.py',
   'PYMODULE'),
  ('Sastrawi.Morphology.Disambiguator.DisambiguatorPrefixRule19',
   'c:\\users\\irfan fakri '
   'ardian\\appdata\\local\\programs\\python\\python36\\lib\\site-packages\\Sastrawi\\Morphology\\Disambiguator\\DisambiguatorPrefixRule19.py',
   'PYMODULE'),
  ('Sastrawi.Morphology.Disambiguator.DisambiguatorPrefixRule18',
   'c:\\users\\irfan fakri '
   'ardian\\appdata\\local\\programs\\python\\python36\\lib\\site-packages\\Sastrawi\\Morphology\\Disambiguator\\DisambiguatorPrefixRule18.py',
   'PYMODULE'),
  ('Sastrawi.Morphology.Disambiguator.DisambiguatorPrefixRule17',
   'c:\\users\\irfan fakri '
   'ardian\\appdata\\local\\programs\\python\\python36\\lib\\site-packages\\Sastrawi\\Morphology\\Disambiguator\\DisambiguatorPrefixRule17.py',
   'PYMODULE'),
  ('Sastrawi.Morphology.Disambiguator.DisambiguatorPrefixRule16',
   'c:\\users\\irfan fakri '
   'ardian\\appdata\\local\\programs\\python\\python36\\lib\\site-packages\\Sastrawi\\Morphology\\Disambiguator\\DisambiguatorPrefixRule16.py',
   'PYMODULE'),
  ('Sastrawi.Morphology.Disambiguator.DisambiguatorPrefixRule15',
   'c:\\users\\irfan fakri '
   'ardian\\appdata\\local\\programs\\python\\python36\\lib\\site-packages\\Sastrawi\\Morphology\\Disambiguator\\DisambiguatorPrefixRule15.py',
   'PYMODULE'),
  ('Sastrawi.Morphology.Disambiguator.DisambiguatorPrefixRule14',
   'c:\\users\\irfan fakri '
   'ardian\\appdata\\local\\programs\\python\\python36\\lib\\site-packages\\Sastrawi\\Morphology\\Disambiguator\\DisambiguatorPrefixRule14.py',
   'PYMODULE'),
  ('Sastrawi.Morphology.Disambiguator.DisambiguatorPrefixRule13',
   'c:\\users\\irfan fakri '
   'ardian\\appdata\\local\\programs\\python\\python36\\lib\\site-packages\\Sastrawi\\Morphology\\Disambiguator\\DisambiguatorPrefixRule13.py',
   'PYMODULE'),
  ('Sastrawi.Morphology.Disambiguator.DisambiguatorPrefixRule12',
   'c:\\users\\irfan fakri '
   'ardian\\appdata\\local\\programs\\python\\python36\\lib\\site-packages\\Sastrawi\\Morphology\\Disambiguator\\DisambiguatorPrefixRule12.py',
   'PYMODULE'),
  ('Sastrawi.Morphology.Disambiguator.DisambiguatorPrefixRule11',
   'c:\\users\\irfan fakri '
   'ardian\\appdata\\local\\programs\\python\\python36\\lib\\site-packages\\Sastrawi\\Morphology\\Disambiguator\\DisambiguatorPrefixRule11.py',
   'PYMODULE'),
  ('Sastrawi.Morphology.Disambiguator.DisambiguatorPrefixRule10',
   'c:\\users\\irfan fakri '
   'ardian\\appdata\\local\\programs\\python\\python36\\lib\\site-packages\\Sastrawi\\Morphology\\Disambiguator\\DisambiguatorPrefixRule10.py',
   'PYMODULE'),
  ('Sastrawi.Morphology.Disambiguator.DisambiguatorPrefixRule9',
   'c:\\users\\irfan fakri '
   'ardian\\appdata\\local\\programs\\python\\python36\\lib\\site-packages\\Sastrawi\\Morphology\\Disambiguator\\DisambiguatorPrefixRule9.py',
   'PYMODULE'),
  ('Sastrawi.Morphology.Disambiguator.DisambiguatorPrefixRule8',
   'c:\\users\\irfan fakri '
   'ardian\\appdata\\local\\programs\\python\\python36\\lib\\site-packages\\Sastrawi\\Morphology\\Disambiguator\\DisambiguatorPrefixRule8.py',
   'PYMODULE'),
  ('Sastrawi.Morphology.Disambiguator.DisambiguatorPrefixRule7',
   'c:\\users\\irfan fakri '
   'ardian\\appdata\\local\\programs\\python\\python36\\lib\\site-packages\\Sastrawi\\Morphology\\Disambiguator\\DisambiguatorPrefixRule7.py',
   'PYMODULE'),
  ('Sastrawi.Morphology.Disambiguator.DisambiguatorPrefixRule6',
   'c:\\users\\irfan fakri '
   'ardian\\appdata\\local\\programs\\python\\python36\\lib\\site-packages\\Sastrawi\\Morphology\\Disambiguator\\DisambiguatorPrefixRule6.py',
   'PYMODULE'),
  ('Sastrawi.Morphology.Disambiguator.DisambiguatorPrefixRule5',
   'c:\\users\\irfan fakri '
   'ardian\\appdata\\local\\programs\\python\\python36\\lib\\site-packages\\Sastrawi\\Morphology\\Disambiguator\\DisambiguatorPrefixRule5.py',
   'PYMODULE'),
  ('Sastrawi.Morphology.Disambiguator.DisambiguatorPrefixRule4',
   'c:\\users\\irfan fakri '
   'ardian\\appdata\\local\\programs\\python\\python36\\lib\\site-packages\\Sastrawi\\Morphology\\Disambiguator\\DisambiguatorPrefixRule4.py',
   'PYMODULE'),
  ('Sastrawi.Morphology.Disambiguator.DisambiguatorPrefixRule3',
   'c:\\users\\irfan fakri '
   'ardian\\appdata\\local\\programs\\python\\python36\\lib\\site-packages\\Sastrawi\\Morphology\\Disambiguator\\DisambiguatorPrefixRule3.py',
   'PYMODULE'),
  ('Sastrawi.Morphology.Disambiguator.DisambiguatorPrefixRule2',
   'c:\\users\\irfan fakri '
   'ardian\\appdata\\local\\programs\\python\\python36\\lib\\site-packages\\Sastrawi\\Morphology\\Disambiguator\\DisambiguatorPrefixRule2.py',
   'PYMODULE'),
  ('Sastrawi.Morphology.Disambiguator.DisambiguatorPrefixRule1',
   'c:\\users\\irfan fakri '
   'ardian\\appdata\\local\\programs\\python\\python36\\lib\\site-packages\\Sastrawi\\Morphology\\Disambiguator\\DisambiguatorPrefixRule1.py',
   'PYMODULE'),
  ('Sastrawi.Stemmer.Context.Visitor.RemovePlainPrefix',
   'c:\\users\\irfan fakri '
   'ardian\\appdata\\local\\programs\\python\\python36\\lib\\site-packages\\Sastrawi\\Stemmer\\Context\\Visitor\\RemovePlainPrefix.py',
   'PYMODULE'),
  ('Sastrawi.Stemmer.Context.Removal',
   'c:\\users\\irfan fakri '
   'ardian\\appdata\\local\\programs\\python\\python36\\lib\\site-packages\\Sastrawi\\Stemmer\\Context\\Removal.py',
   'PYMODULE'),
  ('Sastrawi.Stemmer.Context.RemovalInterface',
   'c:\\users\\irfan fakri '
   'ardian\\appdata\\local\\programs\\python\\python36\\lib\\site-packages\\Sastrawi\\Stemmer\\Context\\RemovalInterface.py',
   'PYMODULE'),
  ('Sastrawi.Stemmer.Context.Visitor.PrefixDisambiguator',
   'c:\\users\\irfan fakri '
   'ardian\\appdata\\local\\programs\\python\\python36\\lib\\site-packages\\Sastrawi\\Stemmer\\Context\\Visitor\\PrefixDisambiguator.py',
   'PYMODULE'),
  ('Sastrawi.Stemmer.Context.Visitor.AbstractDisambiguatePrefixRule',
   'c:\\users\\irfan fakri '
   'ardian\\appdata\\local\\programs\\python\\python36\\lib\\site-packages\\Sastrawi\\Stemmer\\Context\\Visitor\\AbstractDisambiguatePrefixRule.py',
   'PYMODULE'),
  ('Sastrawi.Stemmer.Context.Visitor.RemoveInflectionalPossessivePronoun',
   'c:\\users\\irfan fakri '
   'ardian\\appdata\\local\\programs\\python\\python36\\lib\\site-packages\\Sastrawi\\Stemmer\\Context\\Visitor\\RemoveInflectionalPossessivePronoun.py',
   'PYMODULE'),
  ('Sastrawi.Stemmer.Context.Visitor.RemoveDerivationalSuffix',
   'c:\\users\\irfan fakri '
   'ardian\\appdata\\local\\programs\\python\\python36\\lib\\site-packages\\Sastrawi\\Stemmer\\Context\\Visitor\\RemoveDerivationalSuffix.py',
   'PYMODULE'),
  ('Sastrawi.Stemmer.Context.Visitor.RemoveInflectionalParticle',
   'c:\\users\\irfan fakri '
   'ardian\\appdata\\local\\programs\\python\\python36\\lib\\site-packages\\Sastrawi\\Stemmer\\Context\\Visitor\\RemoveInflectionalParticle.py',
   'PYMODULE'),
  ('Sastrawi.Stemmer.Context.Visitor.DontStemShortWord',
   'c:\\users\\irfan fakri '
   'ardian\\appdata\\local\\programs\\python\\python36\\lib\\site-packages\\Sastrawi\\Stemmer\\Context\\Visitor\\DontStemShortWord.py',
   'PYMODULE'),
  ('Sastrawi.Dictionary.ArrayDictionary',
   'c:\\users\\irfan fakri '
   'ardian\\appdata\\local\\programs\\python\\python36\\lib\\site-packages\\Sastrawi\\Dictionary\\ArrayDictionary.py',
   'PYMODULE'),
  ('Sastrawi.Dictionary',
   'c:\\users\\irfan fakri '
   'ardian\\appdata\\local\\programs\\python\\python36\\lib\\site-packages\\Sastrawi\\Dictionary\\__init__.py',
   'PYMODULE'),
  ('csv',
   'c:\\users\\irfan fakri '
   'ardian\\appdata\\local\\programs\\python\\python36\\lib\\csv.py',
   'PYMODULE'),
  ('sqlite3',
   'c:\\users\\irfan fakri '
   'ardian\\appdata\\local\\programs\\python\\python36\\lib\\sqlite3\\__init__.py',
   'PYMODULE'),
  ('sqlite3.dump',
   'c:\\users\\irfan fakri '
   'ardian\\appdata\\local\\programs\\python\\python36\\lib\\sqlite3\\dump.py',
   'PYMODULE'),
  ('sqlite3.dbapi2',
   'c:\\users\\irfan fakri '
   'ardian\\appdata\\local\\programs\\python\\python36\\lib\\sqlite3\\dbapi2.py',
   'PYMODULE'),
  ('tkinter.messagebox',
   'c:\\users\\irfan fakri '
   'ardian\\appdata\\local\\programs\\python\\python36\\lib\\tkinter\\messagebox.py',
   'PYMODULE'),
  ('tkinter.commondialog',
   'c:\\users\\irfan fakri '
   'ardian\\appdata\\local\\programs\\python\\python36\\lib\\tkinter\\commondialog.py',
   'PYMODULE'),
  ('tkinter.ttk',
   'c:\\users\\irfan fakri '
   'ardian\\appdata\\local\\programs\\python\\python36\\lib\\tkinter\\ttk.py',
   'PYMODULE'),
  ('tkinter',
   'c:\\users\\irfan fakri '
   'ardian\\appdata\\local\\programs\\python\\python36\\lib\\tkinter\\__init__.py',
   'PYMODULE'),
  ('tkinter.constants',
   'c:\\users\\irfan fakri '
   'ardian\\appdata\\local\\programs\\python\\python36\\lib\\tkinter\\constants.py',
   'PYMODULE')])
