Kemampuan Akhir yang Diharapkan,
 ,
Menjelaskan  konsep struktur komputer dan dapat menyebutkan komponen-komponennya.,
,
Memahami kedudukan sistem operasi dalam kedudukannya dalam struktur komputer,
,
"Mengetahui definisi, tujuan dan fungsi sistem operasi",
,
Mengetahui perkembangan sistem operasi,
,
Menjelaskan tujuan dari suatu sistem operasi dan satu layanan menyediakan,
,
"Menjelaskan perbedaan fungsi yang ditemukan di ponsel, jaringan, client-server, sistem operasi terdistribusi, dan sistem single user",
,
"Menentukan kriteria desain utama termasuk efisiensi, ketahanan, dan keamanan",
,
Menelaskan ancaman utama untuk sistem operasi dan bagaimana mencegah mereka (IEEE-CE 2016 CE-SRM-1 History and overview of operating systems),
,
Mengidentifikasi spesifikasi sistem operasi untuk perangkat sistem komputer SKKNI : 285/2016 (J.620900.002.02),
Menjelaskan  komponen-komponen sistem operasi,
,
Menjelaskan layanan sistem operasi,
,
Menjelaskan konsep system call,
,
Menjelaskan konsep sistem program,
,
Menguasai  konsep struktur sistem operasi,
,
Melakukan instalasi Sistem Operasi SKKNI : 285/2016 (J.620900.025.02),
,
Meiakukan instalasi software sistem operasi SKKNI : 285/2016 (J.620900.026.02),
,
Mengimplementasikan Virtualisasi Sesuai Dengan Kebutuhan Organisasi (J.631120.008.01) SKKNI : 456/2015,
,
IEEE-CE 2016 CE-SRM-8 Support for virtualization ,
,
,
Memahami konsep proses,
,
Memahami konsep penjadwalan,
,
Memahami konsep operasi pada proses,
,
Memahami konsep threads,
,
Memahami konsep komunikasi antar proses,
,
Memahami konsep buffering,
,
Memahami kondisi-kondisi pengecualian pada proses,
,
Memahami mengapa penjadwalan tugas dan pengiriman diperlukan sebagai sumber daya sistem dikelola (CE-SRM-3 Managing system resources),
,
Memahami konsep penjadwalan proses,
,
Mengetahui beragam algoritma penjadwalan proses,
,
Mampu menerapkan beragam algoritma penjadwalan proses pada bermacam situasi yang berbeda,
,
Dapat mengoptimalkan kinerja sistem operasi SKKNI 285/2016 (J.620900.030.02),
,
Menjelaskan perbedaan antara penjadwalan preemptive dan non-preemptive dan menunjukkan algoritma yang umum digunakan untuk penjadwalan (IEEE-CE 2016 CE-SRM-3 Managing system resources),
,
,
Memahami masalah critical section pada proses,
,
Memahami konsep sinkronisasi software dan hardware pada berbagai sistem operasi ,
,
Memahami konsep semaphore,
,
Memanfaatkan semaphore SKKNI 282/2016 (J.620100.029.002),
,
"MenJelaskan teknik yang digunakan dalam real time Sistem Operasi seperti passing pesan, preemptive terhadap cooperative scheduling, semaphore, antrian, tugas, co-routines, mutexes, dll (IEEE CE 2016 CE-ESY-9 Implementation Strategies for Complex Embedded Systems)",
,
Memahami masalah runtime yang bisa timbul akibat operasi bersamaan beberapa tugas atau komponen dalam sistem (IEEE CE 2016 CE-SRM-3 Managing system resources),
,
,
Mampu mengenali karakteristik deadlock,
,
Memahami konsep deadlock,
,
Mengetahui ragam metode penanganan deadlock pada berbagai sistem operasi,
,
Menjelaskan mengapa penjadwalan tugas dan pengiriman diperlukan sebagai sumber daya sistem dikelola (IEEE CE 2016 CE-SRM-3 Managing system resources),
,
,
,
,
Memahami konsep memori,
,
Memahami strategi manajemen memori,
,
Memahami ruang alamat logika dan fisik,
,
Memahami konsep swapping,
,
Mennghitung pemakaian memori,
,
Mengaplikasikan manajemen memori pada berbagai sistem operasi,
,
"Memahami interupsi, tugas pengiriman, dan switching konteks digunakan untuk mendukung concurrency (IEEE CE 2016 CE-SRM-3 Managing system resources)",
,
Memahami hirarki memori (IEEE CE 2016 CE-SRM-3 Managing system resources),
,
"Menjelaskan dan memberikan contoh konsep dasar dalam concurrent processing seperti multiprosesor, multicore, memori SIMD, MIMD, sharing memori, dan memori terdistribusi (IEEE CE 2016 CE-SRM-6 Support for concurrent processing)",
Memahami konsep pengalokasian memori,
,
Mampu menerapkan konsep pengalokasian memori berurutan pada situasi yang berbeda pada berbagai sistem operasi,
,
Mampu menerapkan konsep pengalokasian memori tak berurutan pada situasi yang berbeda pada berbagai sistem operasi,
Memahami hirarki memori (IEEE CE 2016 CE-SRM-3 Managing system resources),
"Menjelaskan dan memberikan contoh konsep dasar dalam concurrent processing seperti multiprosesor, multicore, memori SIMD, MIMD, sharing memori, dan memori terdistribusi (IEEE CE 2016 CE-SRM-6 Support for concurrent processing)",
Memahami konsep memori virtual,
,
Memahami konsep demand paging,
,
Memahami konsep Replacement,
,
Mampu menyebutkan algoritma page replacement,
,
Mampu menerapkan beragam algoritma page replacement,
,
pada bermacam situasi yang berbeda,
,
Memahami konsep pengalokasian frame,
,
Mampu menyebutkan algoritma pengalokasian frame,
,
Mampu menerapkan beragam algoritma pengalokasian frame pada bermacam situasi yang berbeda,
,
Memahami konsep Trasing,
,
Menjelaskan hirarki memori (cache melalui memori virtual) dan cost-performance yang dibuat dalam desain (IEEE CE 2016 CE-SRM-3 Managing system resources),
,
Menjelaskan prinsip-prinsip manajemen memori dan sistem memori virtual (IEEE CE 2016 CE-CAO-7 Memory system organization and architecture),
Memahami konsep interface sistem file,
,
Menerapkan konsep sistem file pada berbagai sistem operasi,
Menentukan pilihan yang harus dibuat dalam desain sistem file dan bagaimana pilihan tersebut mempengaruhi manajemen sumber daya sistem (IEEE CE 2016 CE-SRM-3 Managing system resources),
Mengetahui cara melakukan Recovery Data SKKNI 2016/285 (J.620900.027.02),
,
,
UJIAN TENGAH SEMESTER,
Memahami prinsip perangkat keras I/O,
,
Memahami prinsip perangkat lunak I/O,
,
Menjelaskan penggunaan interupsi untuk melaksanakan kontrol I/O dan transfer data (IEEE CE 2016 CE-CAO-8 Input/output interfacing and communication),
Menjelaskan interaksi DMA dengan I/O device (IEEE CE 2016 CE-CAO-8 Input/output interfacing and communication),
Memahami konsep disk sebagai salah satu bagian dari perangkat keras I/O,
,
Memahami konsep penjadwalan disk,
,
Mampu menerapkan bermacam algoritma penjadwalan disk pada berbagai situasi berbeda,
,
Memahami konsep disk management,
,
Memahami konsep swap space management,
,
"Memahami konsep  user interface (meliputi keyboard, mouse dan monitor)",
,
Menerapkan konsep user interface input software pada berbagai sistem operasi,
,
Menerapakan konsep user interface pada output software pada berbagai sistem operasi,
,
Melakukan Restore Sistem Operasi SKKNI 2016/285 (J.620900.032.02),
,
Melakukan Backup Data dan Sistem SKKNI 2016/285 (J.620900.033.02),
,
"Menyusun Fungsi, File atau Sumber Daya Pemrograman yang Lain dalam Organisasi yang Rapi SKKNI 2016/285 (J.620100.015.01)",
,
,
Memahami konsep proteksi ,
,
Menerapkan konsep proteksi pada berbagai sistem operasi yang berbeda,
,
Memahami konsep sekuriti,
,
Menerapkan konsep sekuriti pada berbagai sistem operasi yang berbeda,
"Menjelaskan beberapa jenis malware seperti virus, worm, trojan horse, key logger, dan ransomware (IEEE CE 2016 CE-SEC-4 Vulnerabilities and exploitation)",
Mencegah Komputer dari Serangan Berbagai Jenis Virus SKKNI 2016/285 (J.620900.028.02),
Memperbaiki Komputer yang Terinfeksi Virus SKKNI 2016/285 (J.620900.029.02),
Mengetahui cara merawat sistem operasi SKKNI 2016/285 (J.620900.031.02),
,
Memahami konsep sistem terdistribusi,
,
Menerapkan konsep sistem terdistribusi pada berbagai sistem operasi,
Menjelaskan perbedaan dan timbal balik antara berbagai paradigma sistem terdistribusi serta kegunaan dan penerapannya. (IEEE CE 2016 CE-CAO-11 Distributed system architectures),
Menjelaskan bagaimana model client-server bekerja dengan cara terdesentralisasi. (CE-CAO-11 Distributed system architectures),
Menjelaskan bagaimana agen bekerja dan bagaimana mereka memecahkan tugas-tugas sederhana (CE-CAO-11 Distributed system architectures),
UJIAN AKHIR SEMESTER,
